labo3/tp_final/med/fft_rect_ramp5k.csv

#Digilent WaveForms Oscilloscope Acquisition
#Device Name: DIGI_VITO
#Serial Number: SN:210321B3D6BB
#Date Time: 2025-12-04 10:33:09.786
#Sample rate: 80000Hz
#Samples: 8192
#Trigger: Source: Channel 2 Type: Edge Condition: Rising Level: 1.15 V Hyst.: Auto HoldOff: 0 s
#Channel 1: Range: 500 mV/div Offset: -2.5 V Sample Mode: Average
#Channel 2: Range: 500 mV/div Offset: -2.5 V Sample Mode: Average
#Wavegen Channel 2: Running
#Mode: Simple
#Type: RampUp
#Frequency: 5 kHz
#Period: 200 us
#Amplitude: 1.65 V
#Offset: 1.65 V
#Symmetry: 100 %
#Phase: 0 °

Time (s),Channel 1 (V),Channel 2 (V)
-0.02519202562554873,0.03788991878994885,0.0343784083906824
-0.02517952562554873,0.03755596303190911,0.03404239189129739
-0.02516702562554873,0.03755596303190911,0.03370637539191312
-0.02515452562554873,0.03722200727386982,0.03337035889252826
-0.02514202562554873,0.03722200727386982,0.03337035889252826
-0.02512952562554873,0.03788991878994885,0.03706654038576085
-0.02511702562554873,0.0412294763703443,0.05420338185438367
-0.02510452562554873,0.0398936533381864,0.04882711786422922
-0.02509202562554873,0.03922574182210736,0.04513093637099619
-0.02507952562554873,0.03889178606406762,0.04210678787653288
-0.02506702562554873,0.03855783030602788,0.0397546723808393
-0.02505452562554873,0.03822387454798859,0.03841060638329968
-0.02504202562554873,0.03822387454798859,0.03706654038576085
-0.02502952562554873,0.03755596303190911,0.03605849088760671
-0.02501702562554873,0.03755596303190911,0.03538645788883699
-0.02500452562554873,0.03755596303190911,0.03505044138945212
-0.02499202562554872,0.0378899187899487,0.03471442489006681
-0.02497952562554873,0.03755596303190911,0.03370637539191312
-0.02496702562554873,0.03755596303190911,0.03404239189129754
-0.02495452562554873,0.03788991878994885,0.03404239189129754
-0.02494202562554873,0.03788991878994885,0.03370637539191312
-0.02492952562554872,0.0382238745479898,0.03706654038576879
-0.02491702562554873,0.04089552061230517,0.05453939835377097
-0.02490452562554873,0.0398936533381864,0.04882711786422922
-0.02489202562554873,0.03922574182210736,0.04513093637099619
-0.02487952562554873,0.03855783030602788,0.04210678787653288
-0.02486702562554872,0.03855783030602788,0.04009068888022355
-0.02485452562554873,0.03855783030602788,0.03874662288268516
-0.02484202562554873,0.03855783030602788,0.03773857338453057
-0.02482952562554873,0.03822387454798859,0.03673052388637599
-0.02481702562554873,0.03788991878994885,0.03605849088760671
-0.02480452562554872,0.03788991878994885,0.03538645788883668
-0.02479202562554873,0.03788991878994885,0.03471442489006726
-0.02477952562554873,0.03855783030602788,0.03505044138945212
-0.02476702562554873,0.03822387454798859,0.03471442489006726
-0.02475452562554873,0.03922574182210736,0.03538645788883699
-0.02474202562554873,0.03889178606406778,0.03505044138945228
-0.02472952562554873,0.0415634321283842,0.04076272187899388
-0.02471702562554873,0.04657276849897807,0.05991566234392787
-0.02470452562554873,0.04523694546681956,0.05487541485315584
-0.02469202562554873,0.04690672425701781,0.05285931585684667
-0.02467952562554873,0.04690672425701781,0.04983516736238518
-0.02466702562554873,0.04456903395074052,0.04613898586915077
-0.02465452562554873,0.04323321091858245,0.04345085387407233
-0.02464202562554873,0.04256529940250298,0.0414347548777636
-0.02462952562554873,0.04089552061230517,0.03941865588145443
-0.02461702562554873,0.04022760909622644,0.03773857338453133
-0.02460452562554873,0.03955969758014666,0.03673052388637599
-0.02459202562554873,0.03922574182210736,0.03639450738699157
-0.02457952562554873,0.03889178606406762,0.03538645788883699
-0.02456702562554873,0.03855783030602788,0.03538645788883699
-0.02455452562554873,0.03855783030602788,0.03505044138945228
-0.02454202562554873,0.03855783030602788,0.03538645788883699
-0.02452952562554873,0.03889178606406762,0.03807458988391543
-0.02451702562554873,0.0415634321283842,0.0552114313525407
-0.02450452562554873,0.04056156485426543,0.05017118386176822
-0.02449202562554873,0.0398936533381867,0.04647500236853731
-0.02447952562554873,0.03955969758014666,0.04311483737468746
-0.02446702562554873,0.03955969758014666,0.04109873837837874
-0.02445452562554873,0.03889178606406762,0.03941865588145443
-0.02444202562554873,0.03855783030602788,0.03841060638330029
-0.02442952562554873,0.03855783030602788,0.03706654038576146
-0.02441702562554873,0.03889178606406762,0.03639450738699157
-0.02440452562554873,0.03855783030602788,0.03605849088760671
-0.02439202562554873,0.03855783030602788,0.03538645788883699
-0.02437952562554873,0.03822387454798859,0.03538645788883699
-0.02436702562554873,0.03822387454798859,0.03471442489006757
-0.02435452562554873,0.03855783030602788,0.03505044138945212
-0.02434202562554873,0.03822387454798859,0.0343784083906824
-0.02432952562554873,0.03922574182210736,0.03841060638330029
-0.02431702562554873,0.04189738788642394,0.0552114313525407
-0.02430452562554873,0.04056156485426604,0.04983516736238625
-0.02429202562554873,0.03955969758014666,0.04580296936976591
-0.02427952562554873,0.03922574182210736,0.04311483737468746
-0.02426702562554873,0.03889178606406762,0.04076272187899388
-0.02425452562554873,0.03889178606406762,0.03941865588145443
-0.02424202562554873,0.03855783030602804,0.03773857338453133
-0.02422952562554873,0.03822387454798859,0.03673052388637599
-0.02421702562554873,0.03855783030602788,0.03639450738699157
-0.02420452562554873,0.03822387454798859,0.03538645788883699
-0.02419202562554873,0.03855783030602788,0.03538645788883699
-0.02417952562554873,0.03822387454798874,0.03471442489006757
-0.02416702562554873,0.03822387454798859,0.03471442489006726
-0.02415452562554873,0.03788991878994885,0.03471442489006726
-0.02414202562554873,0.03855783030602788,0.03471442489006726
-0.02412952562554873,0.03889178606406762,0.03841060638330029
-0.02411702562554873,0.04156343212838299,0.05521143135253306
-0.02410452562554873,0.04089552061230517,0.05017118386176822
-0.02409202562554873,0.0398936533381864,0.04613898586915077
-0.02407952562554873,0.03955969758014666,0.04345085387407233
-0.02406702562554873,0.03889178606406762,0.04109873837837874
-0.02405452562554873,0.03922574182210736,0.0397546723808393
-0.02404202562554873,0.03855783030602788,0.03841060638330029
-0.02402952562554873,0.03855783030602788,0.03740255688514571
-0.02401702562554873,0.03855783030602788,0.03673052388637599
-0.02400452562554873,0.03889178606406762,0.03605849088760671
-0.02399202562554873,0.03855783030602788,0.03572247438822185
-0.02397952562554873,0.03855783030602788,0.03538645788883699
-0.02396702562554873,0.03822387454798859,0.03505044138945212
-0.02395452562554873,0.03855783030602788,0.03505044138945212
-0.02394202562554873,0.03855783030602788,0.03471442489006726
-0.02392952562554873,0.03955969758014666,0.03908263938207002
-0.02391702562554873,0.04189738788642394,0.0552114313525407
-0.02390452562554873,0.04089552061230517,0.05084321686053794
-0.02389202562554873,0.04089552061230517,0.04714703536730536
-0.02387952562554873,0.04122947637034491,0.04513093637099619
-0.02386702562554873,0.04089552061230517,0.0427788208753026
-0.02385452562554873,0.04122947637034445,0.04177077137714755
-0.02384202562554873,0.04022760909622614,0.0397546723808393
-0.02382952562554873,0.0398936533381864,0.03908263938207002
-0.02381702562554873,0.0398936533381864,0.03807458988391543
-0.02380452562554873,0.03955969758014666,0.03706654038576085
-0.02379202562554873,0.03955969758014651,0.03706654038576039
-0.02377952562554873,0.03922574182210736,0.03605849088760671
-0.02376702562554873,0.03922574182210736,0.03639450738699157
-0.02375452562554873,0.03922574182210736,0.03572247438822185
-0.02374202562554873,0.03889178606406762,0.03572247438822185
-0.02372952562554873,0.03955969758014787,0.03941865588146192
-0.02371702562554873,0.04223134364446368,0.05588346435130997
-0.02370452562554873,0.04122947637034491,0.0511792333599228
-0.02369202562554873,0.04056156485426543,0.0468110188679205
-0.02367952562554873,0.04022760909622614,0.04412288687284205
-0.02366702562554873,0.03989365333818624,0.04143475487776284
-0.02365452562554873,0.03955969758014666,0.0397546723808393
-0.02364202562554873,0.03889178606406762,0.03874662288268516
-0.02362952562554873,0.03955969758014666,0.03807458988391543
-0.02361702562554873,0.03889178606406762,0.03740255688514571
-0.02360452562554873,0.03889178606406762,0.03673052388637553
-0.02359202562554873,0.03889178606406762,0.03572247438822185
-0.02357952562554873,0.03922574182210736,0.03673052388637599
-0.02356702562554873,0.03889178606406762,0.03572247438822185
-0.02355452562554873,0.03922574182210736,0.03572247438822185
-0.02354202562554873,0.03889178606406793,0.03538645788883882
-0.02352952562554873,0.03955969758014666,0.03941865588145443
-0.02351702562554873,0.04223134364446368,0.05588346435130997
-0.02350452562554873,0.04122947637034491,0.05084321686053794
-0.02349202562554873,0.04056156485426543,0.0468110188679205
-0.02347952562554873,0.03989365333818609,0.04378687037345612
-0.02346702562554873,0.03922574182210736,0.0414347548777636
-0.02345452562554873,0.03955969758014666,0.04009068888022416
-0.02344202562554873,0.03889178606406762,0.03908263938207002
-0.02342952562554873,0.03922574182210736,0.03773857338453057
-0.02341702562554872,0.03889178606406762,0.03673052388637583
-0.02340452562554873,0.03889178606406762,0.03639450738699157
-0.02339202562554873,0.03855783030602788,0.03639450738699157
-0.02337952562554873,0.03889178606406762,0.03572247438822185
-0.02336702562554873,0.03889178606406762,0.03572247438822185
-0.02335452562554872,0.03855783030602804,0.03538645788883699
-0.02334202562554873,0.03889178606406762,0.03538645788883699
-0.02332952562554873,0.03922574182210736,0.03908263938207002
-0.02331702562554873,0.04223134364446368,0.05588346435130997
-0.02330452562554873,0.04089552061230517,0.05050720036115308
-0.02329202562554872,0.04056156485426513,0.04714703536730368
-0.02327952562554873,0.0398936533381864,0.04345085387407233
-0.02326702562554873,0.03955969758014666,0.0414347548777636
-0.02325452562554873,0.03922574182210736,0.0397546723808393
-0.02324202562554873,0.03922574182210736,0.03908263938207002
-0.02322952562554872,0.03889178606406762,0.03773857338453027
-0.02321702562554873,0.03889178606406762,0.03706654038576085
-0.02320452562554873,0.03889178606406762,0.03639450738699157
-0.02319202562554873,0.03889178606406762,0.03639450738699157
-0.02317952562554873,0.03889178606406762,0.03572247438822185
-0.02316702562554873,0.03922574182210721,0.03639450738699126
-0.02315452562554873,0.03889178606406762,0.03538645788883699
-0.02314202562554873,0.03889178606406762,0.03572247438822185
-0.02312952562554873,0.03955969758014666,0.03941865588145443
-0.02311702562554873,0.04256529940250298,0.05621948085069484
-0.02310452562554873,0.04156343212838466,0.05084321686054039
-0.02309202562554873,0.04056156485426543,0.04714703536730536
-0.02307952562554873,0.04022760909622614,0.04412288687284205
-0.02306702562554873,0.0398936533381864,0.0414347548777636
-0.02305452562554873,0.03955969758014666,0.04042670537960902
-0.02304202562554873,0.03955969758014666,0.03908263938207063
-0.02302952562554873,0.03955969758014666,0.03841060638330029
-0.02301702562554873,0.03922574182210736,0.03740255688514571
-0.02300452562554873,0.03922574182210736,0.03706654038576085
-0.02299202562554873,0.03922574182210736,0.03639450738699157
-0.02297952562554873,0.03955969758014651,0.03673052388637583
-0.02296702562554873,0.03922574182210736,0.03605849088760671
-0.02295452562554873,0.03922574182210736,0.03605849088760671
-0.02294202562554873,0.03889178606406762,0.03572247438822185
-0.02292952562554873,0.0398936533381864,0.0397546723808393
-0.02291702562554873,0.04256529940250176,0.05655549735007206
-0.02290452562554873,0.04122947637034491,0.05151524985930767
-0.02289202562554873,0.04122947637034491,0.04748305186668977
-0.02287952562554873,0.04056156485426543,0.04445890337222691
-0.02286702562554873,0.04022760909622614,0.04210678787653288
-0.02285452562554873,0.03955969758014696,0.04042670537960978
-0.02284202562554873,0.0398936533381864,0.0397546723808393
-0.02282952562554873,0.03955969758014666,0.03874662288268516
-0.02281702562554873,0.03922574182210736,0.03773857338453057
-0.02280452562554873,0.03955969758014666,0.03740255688514571
-0.02279202562554873,0.03989365333818624,0.037066540385761
-0.02277952562554873,0.03955969758014666,0.03706654038576085
-0.02276702562554873,0.0398936533381864,0.03706654038576085
-0.02275452562554873,0.03955969758014666,0.03673052388637599
-0.02274202562554873,0.0398936533381864,0.03673052388637599
-0.02272952562554873,0.04022760909622598,0.04076272187899205
-0.02271702562554873,0.04289925516054272,0.05722753034884942
-0.02270452562554873,0.04223134364446368,0.05218728285807739
-0.02269202562554873,0.04122947637034491,0.0481550848654595
-0.02267952562554873,0.04122947637034491,0.04546695287038105
-0.02266702562554873,0.04056156485426574,0.04277882087530382
-0.02265452562554873,0.04056156485426543,0.04177077137714846
-0.02264202562554873,0.04022760909622614,0.04042670537960902
-0.02262952562554873,0.04022760909622614,0.0397546723808393
-0.02261702562554873,0.04022760909622614,0.03874662288268516
-0.02260452562554873,0.03989365333818655,0.03841060638330045
-0.02259202562554873,0.04022760909622614,0.03807458988391543
-0.02257952562554873,0.04022760909622614,0.03807458988391543
-0.02256702562554873,0.04022760909622614,0.03773857338453057
-0.02255452562554873,0.04056156485426543,0.03773857338453057
-0.02254202562554873,0.0398936533381867,0.03740255688514586
-0.02252952562554873,0.04089552061230517,0.0414347548777636
-0.02251702562554873,0.04356716667662175,0.05789956334761914
-0.02250452562554873,0.04223134364446368,0.05218728285807739
-0.02249202562554873,0.04189738788642394,0.04849110136484436
-0.02247952562554873,0.04122947637034491,0.04513093637099619
-0.02246702562554873,0.04089552061230517,0.04378687037345719
-0.02245452562554873,0.04089552061230517,0.04177077137714846
-0.02244202562554873,0.04089552061230517,0.04076272187899388
-0.02242952562554873,0.04056156485426543,0.0397546723808393
-0.02241702562554873,0.04056156485426543,0.03874662288268516
-0.02240452562554873,0.04022760909622614,0.03841060638330029
-0.02239202562554873,0.04056156485426543,0.03807458988391543
-0.02237952562554873,0.04022760909622614,0.03807458988391543
-0.02236702562554873,0.04022760909622614,0.03773857338453057
-0.02235452562554873,0.04022760909622614,0.03773857338453057
-0.02234202562554873,0.04022760909622659,0.03740255688514754
-0.02232952562554873,0.04122947637034491,0.0414347548777636
-0.02231702562554873,0.04356716667662175,0.05789956334761914
-0.02230452562554873,0.04256529940250298,0.05285931585684667
-0.02229202562554873,0.0415634321283842,0.04849110136484436
-0.02227952562554873,0.04156343212838405,0.0461389858691497
-0.02226702562554873,0.04122947637034491,0.04378687037345719
-0.02225452562554873,0.04056156485426543,0.04210678787653288
-0.02224202562554873,0.04056156485426543,0.04076272187899388
-0.02222952562554873,0.04056156485426543,0.04009068888022416
-0.02221702562554873,0.03989365333818655,0.03908263938206986
-0.02220452562554873,0.04022760909622614,0.03874662288268516
-0.02219202562554873,0.04022760909622614,0.03841060638330029
-0.02217952562554873,0.04022760909622614,0.03807458988391543
-0.02216702562554873,0.04022760909622614,0.03773857338453057
-0.02215452562554873,0.04022760909622614,0.03773857338453057
-0.02214202562554873,0.04022760909622614,0.03773857338453057
-0.02212952562554873,0.04089552061230517,0.0414347548777636
-0.02211702562554873,0.04356716667662175,0.05823557984700356
-0.02210452562554873,0.04289925516054272,0.05319533235623153
-0.02209202562554873,0.04223134364446338,0.04916313436361271
-0.02207952562554873,0.0415634321283842,0.04613898586915077
-0.02206702562554873,0.04122947637034491,0.04378687037345719
-0.02205452562554873,0.04089552061230517,0.04244280437591774
-0.02204202562554873,0.04056156485426543,0.04109873837837874
-0.02202952562554873,0.04056156485426558,0.04009068888022385
-0.02201702562554873,0.04089552061230517,0.03941865588145443
-0.02200452562554873,0.04056156485426543,0.03874662288268516
-0.02199202562554873,0.04056156485426543,0.03841060638330029
-0.02197952562554873,0.04056156485426543,0.03841060638330029
-0.02196702562554873,0.04022760909622629,0.03807458988391528
-0.02195452562554873,0.04056156485426543,0.03773857338453057
-0.02194202562554873,0.04056156485426543,0.03807458988391543
-0.02192952562554873,0.04089552061230517,0.04177077137714846
-0.02191702562554873,0.04356716667662175,0.05823557984700356
-0.02190452562554873,0.04256529940250328,0.05285931585684529
-0.02189202562554873,0.04323321091858245,0.0498351673623838
-0.02187952562554873,0.04256529940250298,0.04647500236853563
-0.02186702562554873,0.04256529940250298,0.04412288687284205
-0.02185452562554873,0.04223134364446368,0.04244280437591774
-0.02184202562554872,0.04256529940250282,0.0417707713771477
-0.02182952562554873,0.04223134364446368,0.04009068888022416
-0.02181702562554873,0.04223134364446368,0.0397546723808393
-0.02180452562554873,0.04189738788642394,0.03908263938207002
-0.02179202562554873,0.04189738788642394,0.03874662288268516
-0.02177952562554872,0.0418973878864241,0.038746622882685
-0.02176702562554873,0.04223134364446368,0.03841060638330029
-0.02175452562554873,0.04223134364446368,0.03807458988391543
-0.02174202562554873,0.04223134364446368,0.03807458988391543
-0.02172952562554873,0.04256529940250298,0.04177077137714846
-0.02171702562554872,0.04557090122485884,0.05857159634638598
-0.02170452562554873,0.04456903395074052,0.05319533235623153
-0.02169202562554873,0.04423507819270123,0.04949915086299894
-0.02167952562554873,0.04390112243466149,0.0468110188679205
-0.02166702562554873,0.04356716667662175,0.04412288687284205
-0.02165452562554872,0.04323321091858245,0.04244280437591713
-0.02164202562554873,0.04323321091858245,0.04109873837837874
-0.02162952562554873,0.04289925516054272,0.04042670537960902
-0.02161702562554873,0.04256529940250298,0.03941865588145443
-0.02160452562554873,0.04289925516054272,0.03908263938207002
-0.02159202562554873,0.04356716667662144,0.03874662288268531
-0.02157952562554873,0.04390112243466149,0.03908263938207002
-0.02156702562554873,0.04390112243466149,0.03841060638330029
-0.02155452562554873,0.04356716667662175,0.03841060638330029
-0.02154202562554873,0.04356716667662175,0.03841060638330029
-0.02152952562554873,0.04423507819270092,0.0421067878765312
-0.02151702562554873,0.04690672425701781,0.05857159634638842
-0.02150452562554873,0.04590485698289903,0.05319533235623153
-0.02149202562554873,0.04623881274093833,0.0498351673623838
-0.02147952562554873,0.04557090122485929,0.04647500236853563
-0.02146702562554873,0.04557090122485929,0.04445890337222783
-0.02145452562554873,0.04490298970878026,0.0427788208753026
-0.02144202562554873,0.04490298970878026,0.0414347548777636
-0.02142952562554873,0.04456903395074052,0.04042670537960902
-0.02141702562554873,0.04456903395074052,0.0397546723808393
-0.02140452562554873,0.04490298970878011,0.03941865588145459
-0.02139202562554873,0.04623881274093833,0.03908263938207002
-0.02137952562554873,0.04623881274093833,0.03874662288268516
-0.02136702562554873,0.04623881274093833,0.03874662288268516
-0.02135452562554873,0.04590485698289903,0.03807458988391543
-0.02134202562554873,0.04623881274093818,0.03841060638330014
-0.02132952562554873,0.04690672425701781,0.04210678787653288
-0.02131702562554873,0.04924441456329465,0.05890761284577328
-0.02130452562554873,0.04857650304721561,0.05353134885561639
-0.02129202562554873,0.04857650304721561,0.0498351673623838
-0.02127952562554873,0.04824254728917603,0.04681101886792187
-0.02126702562554873,0.04790859153113658,0.04445890337222691
-0.02125452562554873,0.04790859153113658,0.04311483737468746
-0.02124202562554873,0.04757463577309684,0.0414347548777636
-0.02122952562554873,0.0472406800150571,0.04076272187899388
-0.02121702562554873,0.0472406800150571,0.04009068888022446
