labo3/tp_final/med/ramp5k.csv

#Digilent WaveForms Oscilloscope Acquisition
#Device Name: DIGI_VITO
#Serial Number: SN:210321B3D6BB
#Date Time: 2025-12-04 12:45:53.892
#Sample rate: 9.09091e+06Hz
#Samples: 8192
#Trigger: Source: Channel 1 Type: Edge Condition: Rising Level: 1.5 V Hyst.: Auto HoldOff: 0 s
#Channel 1: Range: 500 mV/div Offset: -2 V Sample Mode: Average
#Wavegen Channel 2: Running
#Mode: Simple
#Type: RampUp
#Frequency: 5 kHz
#Period: 200 us
#Amplitude: 1.65 V
#Offset: 1.65 V
#Symmetry: 100 %
#Phase: 0 °

Time (s),Channel 1 (V)
0.0003774174346685104,1.131406530377209
0.0003775274346685104,1.132408397651327
0.0003776374346685104,1.135080043715644
0.0003777474346685104,1.136415866747802
0.0003778574346685104,1.139087512812119
0.0003779674346685104,1.139755424328198
0.0003780774346685105,1.141759158876437
0.0003781874346685105,1.144764760698792
0.0003782974346685105,1.147102451005069
0.0003784074346685105,1.150442008585465
0.0003785174346685105,1.151443875859584
0.0003786274346685105,1.151777831617623
0.0003787374346685105,1.152111787375663
0.0003788474346685105,1.15444947768194
0.0003789574346685105,1.156119256472138
0.0003790674346685105,1.157455079504296
0.0003791774346685105,1.158790902536454
0.0003792874346685105,1.161462548600771
0.0003793974346685105,1.163466283149009
0.0003795074346685105,1.164802106181167
0.0003796174346685104,1.167473752245484
0.0003797274346685104,1.169477486793721
0.0003798374346685104,1.171815177099998
0.0003799474346685104,1.172817044374117
0.0003800574346685104,1.174486823164315
0.0003801674346685104,1.176824513470592
0.0003802774346685105,1.178160336502751
0.0003803874346685105,1.180831982567067
0.0003804974346685105,1.184505495905503
0.0003806074346685105,1.185507363179621
0.0003807174346685105,1.185841318937661
0.0003808274346685105,1.188846920760017
0.0003809374346685105,1.189514832276096
0.0003810474346685105,1.191518566824334
0.0003811574346685105,1.193188345614532
0.0003812674346685105,1.195192080162769
0.0003813774346685105,1.196193947436888
0.0003814874346685105,1.197195814711007
0.0003815974346685105,1.198865593501205
0.0003817074346685105,1.200869328049442
0.0003818174346685104,1.203207018355719
0.0003819274346685104,1.203207018355719
0.0003820374346685104,1.204876797145917
0.0003821474346685104,1.206546575936115
0.0003822574346685104,1.209552177758471
0.0003823674346685104,1.211221956548669
0.0003824774346685105,1.213225691096907
0.0003825874346685105,1.214895469887105
0.0003826974346685105,1.217233160193382
0.0003828074346685105,1.219570850499659
0.0003829174346685105,1.221574585047897
0.0003830274346685105,1.225582054144371
0.0003831374346685105,1.22691787717653
0.0003832474346685105,1.227919744450649
0.0003833574346685105,1.228921611724767
0.0003834674346685105,1.230925346273005
0.0003835774346685105,1.231593257789084
0.0003836874346685105,1.233930948095361
0.0003837974346685105,1.237604461433797
0.0003839074346685104,1.238272372949876
0.0003840174346685104,1.240610063256153
0.0003841274346685104,1.242279842046351
0.0003842374346685104,1.244617532352628
0.0003843474346685104,1.248291045691063
0.0003844574346685104,1.249292912965182
0.0003845674346685104,1.251630603271458
0.0003846774346685105,1.251964559029499
0.0003847874346685105,1.251630603271459
0.0003848974346685105,1.254302249335776
0.0003850074346685105,1.255638072367934
0.0003851174346685105,1.257975762674211
0.0003852274346685105,1.261983231770686
0.0003853374346685105,1.263986966318924
0.0003854474346685105,1.264654877835003
0.0003855574346685105,1.264988833593043
0.0003856674346685105,1.266658612383241
0.0003857774346685105,1.268996302689517
0.0003858874346685105,1.270666081479716
0.0003859974346685105,1.272001904511874
0.0003861074346685104,1.274339594818151
0.0003862174346685104,1.276009373608349
0.0003863274346685104,1.277011240882468
0.0003864374346685104,1.277011240882468
0.0003865474346685104,1.278681019672665
0.0003866574346685104,1.281352665736982
0.0003867674346685104,1.283356400285219
0.0003868774346685105,1.285694090591497
0.0003869874346685105,1.288365736655813
0.0003870974346685105,1.290035515446011
0.0003872074346685105,1.292707161510328
0.0003873174346685105,1.293041117268368
0.0003874274346685105,1.294376940300526
0.0003875374346685105,1.294710896058566
0.0003876474346685105,1.295712763332685
0.0003877574346685105,1.298718365155041
0.0003878674346685105,1.301390011219357
0.0003879774346685105,1.303059790009555
0.0003880874346685105,1.305731436073872
0.0003881974346685105,1.306733303347991
0.0003883074346685104,1.308069126380149
0.0003884174346685104,1.310072860928387
0.0003885274346685104,1.313412418508783
0.0003886374346685104,1.315082197298981
0.0003887474346685104,1.317753843363297
0.0003888574346685104,1.320425489427614
0.0003889674346685104,1.320091533669574
0.0003890774346685105,1.322429223975851
0.0003891874346685105,1.32343109124997
0.0003892974346685105,1.325768781556247
0.0003894074346685105,1.327772516104485
0.0003895174346685105,1.329108339136643
0.0003896274346685105,1.330444162168801
0.0003897374346685105,1.333115808233118
0.0003898474346685105,1.333449763991158
0.0003899574346685105,1.334785587023316
0.0003900674346685105,1.336789321571553
0.0003901774346685105,1.339127011877831
0.0003902874346685105,1.33979492339391
0.0003903974346685105,1.341798657942147
0.0003905074346685104,1.343468436732345
0.0003906174346685104,1.345138215522543
0.0003907274346685104,1.346140082796662
0.0003908374346685104,1.349813596135097
0.0003909474346685104,1.352151286441374
0.0003910574346685104,1.35549084402177
0.0003911674346685105,1.357160622811969
0.0003912774346685105,1.359832268876285
0.0003913874346685105,1.360500180392364
0.0003914974346685105,1.363171826456681
0.0003916074346685105,1.36350578221472
0.0003917174346685105,1.365843472520997
0.0003918274346685105,1.366511384037077
0.0003919374346685105,1.368515118585314
0.0003920474346685105,1.370518853133551
0.0003921574346685105,1.37185467616571
0.0003922674346685105,1.373190499197868
0.0003923774346685105,1.374192366471987
0.0003924874346685105,1.376864012536304
0.0003925974346685104,1.380203570116699
0.0003927074346685104,1.380537525874739
0.0003928174346685104,1.382541260422977
0.0003929274346685104,1.384211039213175
0.0003930374346685104,1.386548729519452
0.0003931474346685104,1.388886419825729
0.0003932574346685104,1.390556198615926
0.0003933674346685105,1.393227844680244
0.0003934774346685105,1.394563667712402
0.0003935874346685105,1.396567402260639
0.0003936974346685105,1.399239048324956
0.0003938074346685105,1.400240915599075
0.0003939174346685105,1.402912561663392
0.0003940274346685105,1.402912561663392
0.0003941374346685105,1.404582340453589
0.0003942474346685105,1.404916296211629
0.0003943574346685105,1.406920030759867
0.0003944674346685105,1.408255853792025
0.0003945774346685105,1.410927499856341
0.0003946874346685105,1.4122633228885
0.0003947974346685104,1.416938703501054
0.0003949074346685104,1.418274526533212
0.0003950174346685104,1.42027826108145
0.0003951274346685104,1.421614084113608
0.0003952374346685104,1.423617818661846
0.0003953474346685104,1.423283862903806
0.0003954574346685104,1.425621553210082
0.0003955674346685105,1.426957376242243
0.0003956774346685105,1.430296933822637
0.0003957874346685105,1.431632756854796
0.0003958974346685105,1.433636491403033
0.0003960074346685105,1.434304402919112
0.0003961174346685105,1.435640225951271
0.0003962274346685105,1.436976048983429
0.0003963374346685105,1.438979783531667
0.0003964474346685105,1.442319341112063
0.0003965574346685105,1.44398911990226
0.0003966674346685105,1.445324942934419
0.0003967774346685105,1.447328677482656
0.0003968874346685105,1.448998456272854
0.0003969974346685104,1.451336146579131
0.0003971074346685104,1.45200405809521
0.0003972174346685104,1.454675704159527
0.0003973274346685104,1.455677571433646
0.0003974374346685104,1.457681305981883
0.0003975474346685104,1.459017129014042
0.0003976574346685104,1.461020863562279
0.0003977674346685105,1.462022730836399
0.0003978774346685105,1.463692509626596
0.0003979874346685105,1.466698111448952
0.0003980974346685105,1.46870184599719
0.0003982074346685105,1.470371624787388
0.0003983174346685105,1.471707447819546
0.0003984274346685105,1.473377226609744
0.0003985374346685105,1.474379093883863
0.0003986474346685105,1.475380961157982
0.0003987574346685105,1.478386562980338
0.0003988674346685105,1.482060076318773
0.0003989774346685105,1.483061943592892
0.0003990874346685105,1.485399633899169
0.0003991974346685104,1.487069412689367
0.0003993074346685104,1.488405235721525
0.0003994174346685104,1.490742926027802
0.0003995274346685104,1.492412704818
0.0003996374346685104,1.495752262398396
0.0003997474346685104,1.496420173914475
0.0003998574346685104,1.49942577573683
0.0003999674346685105,1.499759731494871
0.0004000774346685105,1.501429510285069
0.0004001874346685105,1.501763466043109
0.0004002974346685105,1.502765333317228
0.0004004074346685105,1.505103023623505
0.0004005174346685105,1.507440713929782
0.0004006274346685105,1.510446315752138
0.0004007374346685105,1.512116094542336
0.0004008474346685105,1.513451917574494
0.0004009574346685105,1.515789607880771
0.0004010674346685105,1.517793342429009
0.0004011774346685105,1.519463121219207
0.0004012874346685104,1.521466855767444
0.0004013974346685104,1.523470590315682
0.0004015074346685104,1.52480641334784
0.0004016174346685104,1.529481793960394
0.0004017274346685104,1.530149705476473
0.0004018374346685104,1.530149705476473
0.0004019474346685104,1.530483661234513
0.0004020574346685105,1.534491130330989
0.0004021674346685105,1.536160909121186
0.0004022774346685105,1.537496732153344
0.0004023874346685105,1.539500466701582
0.0004024974346685105,1.542506068523938
0.0004026074346685105,1.543173980040017
0.0004027174346685105,1.544175847314136
0.0004028274346685105,1.545177714588255
0.0004029374346685105,1.547849360652572
0.0004030474346685105,1.549519139442769
0.0004031574346685105,1.551188918232967
0.0004032674346685105,1.553526608539245
0.0004033774346685105,1.555196387329442
0.0004034874346685104,1.55753407763572
0.0004035974346685104,1.559203856425917
0.0004037074346685104,1.559537812183957
0.0004038174346685104,1.561207590974155
0.0004039274346685104,1.562877369764353
0.0004040374346685104,1.56488110431259
0.0004041474346685104,1.566550883102788
0.0004042574346685105,1.566884838860829
0.0004043674346685105,1.568554617651026
0.0004044774346685105,1.572562086747501
0.0004045874346685105,1.574231865537699
0.0004046974346685105,1.576569555843976
0.0004048074346685105,1.578239334634174
0.0004049174346685105,1.579909113424372
0.0004050274346685105,1.58124493645653
0.0004051374346685105,1.582246803730649
0.0004052474346685105,1.584918449794966
0.0004053574346685105,1.587924051617322
0.0004054674346685105,1.58925987464948
0.0004055774346685105,1.590261741923599
0.0004056874346685104,1.591931520713797
0.0004057974346685104,1.594603166778114
0.0004059074346685104,1.595605034052232
0.0004060174346685104,1.598944591632628
0.0004061274346685104,1.599946458906747
0.0004062374346685104,1.602284149213024
0.0004063474346685104,1.60495579527734
0.0004064574346685105,1.60562370679342
0.0004065674346685105,1.606625574067539
0.0004066774346685105,1.609297220131855
0.0004067874346685105,1.610633043164014
0.0004068974346685105,1.612302821954211
0.0004070074346685105,1.614640512260489
0.0004071174346685105,1.615642379534608
0.0004072274346685105,1.617646114082845
0.0004073374346685105,1.618981937115003
0.0004074474346685105,1.619649848631082
0.0004075574346685105,1.620317760147162
0.0004076674346685105,1.624659185001676
0.0004077774346685104,1.625995008033835
0.0004078874346685104,1.630336432888349
0.0004079974346685104,1.631004344404428
0.0004081074346685104,1.633675990468745
0.0004082174346685104,1.634343901984824
0.0004083274346685104,1.636681592291101
0.0004084374346685104,1.639687194113458
0.0004085474346685104,1.641690928661694
0.0004086574346685105,1.644362574726013
0.0004087674346685105,1.646366309274249
0.0004088774346685105,1.647702132306408
0.0004089874346685105,1.648703999580526
0.0004090974346685105,1.649371911096606
0.0004092074346685105,1.652377512918962
0.0004093174346685105,1.6543812474672
0.0004094274346685105,1.656384982015437
0.0004095374346685105,1.657720805047595
0.0004096474346685105,1.658722672321714
0.0004097574346685105,1.660392451111912
0.0004098674346685105,1.662396185660149
0.0004099774346685104,1.665401787482506
0.0004100874346685104,1.667405522030743
0.0004101974346685104,1.669075300820941
0.0004103074346685104,1.671412991127218
0.0004104174346685104,1.672080902643297
0.0004105274346685104,1.673750681433495
0.0004106374346685104,1.674418592949575
0.0004107474346685104,1.675086504465653
0.0004108574346685105,1.675754415981733
0.0004109674346685105,1.679761885078208
0.0004110774346685105,1.680763752352327
0.0004111874346685105,1.682433531142524
0.0004112974346685105,1.685105177206841
0.0004114074346685105,1.687108911755079
0.0004115174346685105,1.689112646303316
0.0004116274346685105,1.690782425093514
0.0004117374346685105,1.692786159641752
0.0004118474346685105,1.69412198267391
0.0004119574346685105,1.696459672980187
0.0004120674346685105,1.696125717222148
0.0004121774346685104,1.697461540254306
0.0004122874346685104,1.699465274802543
0.0004123974346685104,1.701135053592741
0.0004125074346685104,1.703806699657058
0.0004126174346685104,1.706478345721375
0.0004127274346685104,1.708148124511573
0.0004128374346685104,1.71048581481785
0.0004129474346685105,1.713157460882167
0.0004130574346685105,1.714827239672364
0.0004131674346685105,1.715829106946483
0.0004132774346685105,1.717832841494721
0.0004133874346685105,1.720504487559037
0.0004134974346685105,1.721506354833156
0.0004136074346685105,1.723510089381393
0.0004137174346685105,1.725513823929631
0.0004138274346685105,1.727517558477869
0.0004139374346685105,1.728519425751987
0.0004140474346685105,1.728185469993948
0.0004141574346685105,1.730523160300225
0.0004142674346685105,1.733194806364541
0.0004143774346685104,1.735198540912779
0.0004144874346685104,1.737202275461017
0.0004145974346685104,1.739206010009254
0.0004147074346685104,1.740541833041412
0.0004148174346685104,1.743213479105729
0.0004149274346685104,1.747220948202204
0.0004150374346685104,1.747220948202204
0.0004151474346685105,1.748556771234363
0.0004152574346685105,1.749892594266521
0.0004153674346685105,1.751896328814758
0.0004154774346685105,1.752564240330837
0.0004155874346685105,1.754901930637115
0.0004156974346685105,1.756905665185352
0.0004158074346685105,1.757573576701431
0.0004159174346685105,1.75857544397555
0.0004160274346685105,1.759911267007708
0.0004161374346685105,1.761581045797906
0.0004162474346685105,1.763584780346144
0.0004163574346685105,1.765588514894381
0.0004164674346685104,1.767258293684579
0.0004165774346685104,1.769595983990856
0.0004166874346685104,1.772601585813213
0.0004167974346685104,1.773937408845371
0.0004169074346685104,1.776609054909688
0.0004170174346685104,1.777944877941846
0.0004171274346685104,1.779614656732044
0.0004172374346685104,1.781284435522241
0.0004173474346685105,1.78328817007048
0.0004174574346685105,1.784623993102638
0.0004175674346685105,1.788965417957152
0.0004176774346685105,1.790301240989311
0.0004177874346685105,1.791971019779509
0.0004178974346685105,1.792972887053627
0.0004180074346685105,1.794308710085786
0.0004181174346685105,1.797314311908142
0.0004182274346685105,1.7986501349403
0.0004183374346685105,1.800987825246577
0.0004184474346685105,1.800987825246577
0.0004185574346685105,1.804327382826973
0.0004186674346685104,1.805663205859132
0.0004187774346685104,1.807666940407369
0.0004188874346685104,1.810672542229725
0.0004189974346685104,1.812342321019923
0.0004191074346685104,1.813010232536002
0.0004192174346685104,1.81501396708424
0.0004193274346685104,1.816683745874438
0.0004194374346685104,1.818019568906596
0.0004195474346685105,1.821025170728953
0.0004196574346685105,1.821693082245032
0.0004197674346685105,1.82302890527719
0.0004198774346685105,1.824698684067388
0.0004199874346685105,1.825366595583467
0.0004200974346685105,1.827704285889744
0.0004202074346685105,1.829040108921903
0.0004203174346685105,1.830709887712101
0.0004204274346685105,1.834383401050536
0.0004205374346685105,1.838056914388971
0.0004206474346685105,1.839726693179169
0.0004207574346685105,1.840728560453288
0.0004208674346685104,1.841396471969367
0.0004209774346685104,1.844402073791723
0.0004210874346685104,1.846405808339961
0.0004211974346685104,1.84740767561408
0.0004213074346685104,1.849745365920357
0.0004214174346685104,1.851749100468594
0.0004215274346685104,1.852750967742713
0.0004216374346685104,1.853418879258792
0.0004217474346685105,1.85542261380703
0.0004218574346685105,1.856424481081149
0.0004219674346685105,1.858428215629386
0.0004220774346685105,1.860097994419584
0.0004221874346685105,1.861767773209782
0.0004222974346685105,1.864439419274099
0.0004224074346685105,1.866443153822336
0.0004225174346685105,1.868112932612534
0.0004226274346685105,1.870784578676851
0.0004227374346685105,1.873122268983128
0.0004228474346685105,1.874124136257247
0.0004229574346685105,1.876461826563524
0.0004230674346685104,1.877797649595682
0.0004231774346685104,1.878799516869801
0.0004232874346685104,1.882139074450197
0.0004233974346685104,1.884476764756474
0.0004235074346685104,1.886480499304711
0.0004236174346685104,1.88781632233687
0.0004237274346685104,1.888818189610988
0.0004238374346685105,1.890154012643148
0.0004239474346685105,1.892157747191384
0.0004240574346685105,1.893159614465503
0.0004241674346685105,1.894829393255701
0.0004242774346685105,1.896833127803939
0.0004243874346685105,1.899838729626295
0.0004244974346685105,1.902510375690611
0.0004246074346685105,1.90351224296473
0.0004247174346685105,1.90351224296473
0.0004248274346685105,1.905515977512968
0.0004249374346685105,1.908521579335324
0.0004250474346685105,1.910525313883562
0.0004251574346685104,1.91152718115768
0.0004252674346685104,1.912195092673759
0.0004253774346685104,1.915534650254155
0.0004254874346685104,1.918206296318472
0.0004255974346685104,1.920210030866709
0.0004257074346685104,1.921211898140828
0.0004258174346685104,1.922881676931026
0.0004259274346685104,1.924551455721223
0.0004260374346685105,1.926889146027503
0.0004261474346685105,1.930228703607897
0.0004262574346685105,1.932900349672214
0.0004263674346685105,1.933902216946332
0.0004264774346685105,1.936907818768689
0.0004265874346685105,1.938577597558887
0.0004266974346685105,1.940581332107124
0.0004268074346685105,1.941249243623203
0.0004269174346685105,1.942251110897322
0.0004270274346685105,1.94358693392948
0.0004271374346685105,1.946258579993797
0.0004272474346685105,1.946926491509876
0.0004273574346685104,1.948930226058114
0.0004274674346685104,1.949932093332233
0.0004275774346685104,1.952603739396549
0.0004276874346685104,1.952937695154589
0.0004277974346685104,1.955275385460866
0.0004279074346685104,1.956611208493024
0.0004280174346685104,1.956945164251064
0.0004281274346685104,1.959616810315379
0.0004282374346685105,1.961954500621658
0.0004283474346685105,1.963624279411856
0.0004284574346685105,1.964960102444014
0.0004285674346685105,1.966629881234212
0.0004286774346685105,1.969635483056568
0.0004287874346685105,1.971639217604806
0.0004288974346685105,1.974978775185201
0.0004290074346685105,1.975646686701281
0.0004291174346685105,1.978986244281677
0.0004292274346685105,1.980322067313835
0.0004293374346685105,1.982993713378152
0.0004294474346685105,1.984663492168349
0.0004295574346685104,1.987001182474627
0.0004296674346685104,1.987669093990706
0.0004297774346685104,1.991008651571102
0.0004298874346685104,1.9926784303613
0.0004299974346685104,1.994682164909537
0.0004301074346685104,1.995016120667577
0.0004302174346685104,1.997353810973854
0.0004303274346685104,2.000025457038169
0.0004304374346685105,2.001361280070329
0.0004305474346685105,2.002029191586408
0.0004306574346685105,2.003698970376606
0.0004307674346685105,2.005368749166804
0.0004308774346685105,2.0087083067472
0.0004309874346685105,2.009710174021318
